Sydney Informatics Hub – step2
…
The bake() and juice() functions both return data, not a preprocessing recipe object.  - Thebake()function takes a prepped recipe (one that has had all quantities estimated from training data) and applies it tonew_data`. That new_data could be the training data again or it could be the testing data (with the TRAINING parameters)

ames_test_proc <- bake(ames_prep, new_data = ames_test)

The juice() function is a nice little shortcut. When we juice() the recipe, we squeeze that training data back out, transformed in the ways we specified. Let’s compare the bake() and juice() outputs:

bake(ames_prep, new_data = ames_train)

# A tibble: 2,339 × 231
   Lot_Frontage Lot_Area Mas_V…¹ BsmtF…² BsmtF…³ Bsmt_…⁴ Total…⁵ First…⁶ Secon…⁷
          <dbl>    <dbl>   <dbl>   <dbl>   <dbl>   <dbl>   <dbl>   <dbl>   <dbl>
 1       0.374   -0.212   -0.569  -1.42    0.162  -1.27  -0.388   -0.726  -0.786
 2       0.374    0.0383  -0.569  -1.42   -0.298  -0.288 -0.430   -0.774  -0.786
 3      -0.137   -0.733   -0.569  -1.42   -0.298   0.341  0.0550  -0.231  -0.786
 4      -1.01    -0.943   -0.569   1.27   -0.298   0.630 -0.497   -0.848  -0.786
 5      -0.0770  -0.273   -0.569   1.27   -0.298   0.816 -0.303   -0.631  -0.786
 6      -0.227   -0.359   -0.569  -1.42    0.416  -1.27  -0.714   -1.07   -0.786
 7       0.374   -0.0453  -0.569   1.27   -0.298   0.584 -0.544   -0.382  -0.786
 8       0.314   -0.149   -0.569   0.372  -0.298  -1.27  -2.48     0.427   0.579
 9      -1.73    -0.0430  -0.391  -0.970  -0.298  -0.288 -0.388   -0.678  -0.786
10      -1.73    -0.392   -0.569  -1.42   -0.298  -0.404 -0.0137  -0.308  -0.786
# … with 2,329 more rows, 222 more variables: Low_Qual_Fin_SF <dbl>,
#   Gr_Liv_Area <dbl>, Bsmt_Full_Bath <dbl>, Bsmt_Half_Bath <dbl>,
#   Full_Bath <dbl>, Half_Bath <dbl>, Bedroom_AbvGr <dbl>, Kitchen_AbvGr <dbl>,
#   TotRms_AbvGrd <dbl>, Fireplaces <dbl>, Garage_Cars <dbl>,
#   Garage_Area <dbl>, Wood_Deck_SF <dbl>, Open_Porch_SF <dbl>,
#   Enclosed_Porch <dbl>, Three_season_porch <dbl>, Screen_Porch <dbl>,
#   Pool_Area <dbl>, Misc_Val <dbl>, Mo_Sold <dbl>, Year_Sold <dbl>, …

juice(ames_prep) 

# A tibble: 2,339 × 231
   Lot_Frontage Lot_Area Mas_V…¹ BsmtF…² BsmtF…³ Bsmt_…⁴ Total…⁵ First…⁶ Secon…⁷
          <dbl>    <dbl>   <dbl>   <dbl>   <dbl>   <dbl>   <dbl>   <dbl>   <dbl>
 1       0.374   -0.212   -0.569  -1.42    0.162  -1.27  -0.388   -0.726  -0.786
 2       0.374    0.0383  -0.569  -1.42   -0.298  -0.288 -0.430   -0.774  -0.786
 3      -0.137   -0.733   -0.569  -1.42   -0.298   0.341  0.0550  -0.231  -0.786
 4      -1.01    -0.943   -0.569   1.27   -0.298   0.630 -0.497   -0.848  -0.786
 5      -0.0770  -0.273   -0.569   1.27   -0.298   0.816 -0.303   -0.631  -0.786
 6      -0.227   -0.359   -0.569  -1.42    0.416  -1.27  -0.714   -1.07   -0.786
 7       0.374   -0.0453  -0.569   1.27   -0.298   0.584 -0.544   -0.382  -0.786
 8       0.314   -0.149   -0.569   0.372  -0.298  -1.27  -2.48     0.427   0.579
 9      -1.73    -0.0430  -0.391  -0.970  -0.298  -0.288 -0.388   -0.678  -0.786
10      -1.73    -0.392   -0.569  -1.42   -0.298  -0.404 -0.0137  -0.308  -0.786
# … with 2,329 more rows, 222 more variables: Low_Qual_Fin_SF <dbl>,
#   Gr_Liv_Area <dbl>, Bsmt_Full_Bath <dbl>, Bsmt_Half_Bath <dbl>,
#   Full_Bath <dbl>, Half_Bath <dbl>, Bedroom_AbvGr <dbl>, Kitchen_AbvGr <dbl>,
#   TotRms_AbvGrd <dbl>, Fireplaces <dbl>, Garage_Cars <dbl>,
#   Garage_Area <dbl>, Wood_Deck_SF <dbl>, Open_Porch_SF <dbl>,
#   Enclosed_Porch <dbl>, Three_season_porch <dbl>, Screen_Porch <dbl>,
#   Pool_Area <dbl>, Misc_Val <dbl>, Mo_Sold <dbl>, Year_Sold <dbl>, …
…
To obtain the detailed results from our trained linear regression model in a data frame, we can use the tidy() and glance() functions directly on our trained parsnip model, ames_fit. - The tidy() function takes a linear regression object and returns a data frame of the estimated model coefficients and their associated F-statistics and p-values; - The glance() function will return performance metrics obtained on the training data such as the R2 value (r.squared) and the RMSE (sigma). - We can also use the vip() function to plot the variable importance for each predictor in our model. The importance value is determined based on the F-statistics and estimate coefficents in our trained model object.

# Data frame of estimated coefficients
tidy(ames_fit)

# A tibble: 231 × 5
   term          estimate std.error statistic   p.value
   <chr>            <dbl>     <dbl>     <dbl>     <dbl>
 1 (Intercept)    4.23      0.0959     44.2   1.44e-303
 2 Lot_Frontage   0.00105   0.00121     0.868 3.85e-  1
 3 Lot_Area       0.00568   0.00129     4.40  1.12e-  5
 4 Mas_Vnr_Area   0.00335   0.00167     2.01  4.50e-  2
 5 BsmtFin_SF_1   0.0289    0.0247      1.17  2.42e-  1
 6 BsmtFin_SF_2  -0.00241   0.00118    -2.04  4.13e-  2
 7 Bsmt_Unf_SF   -0.00963   0.00208    -4.63  3.82e-  6
 8 Total_Bsmt_SF  0.0293    0.00325     9.03  3.65e- 19
 9 First_Flr_SF   0.0429    0.00291    14.7   7.55e- 47
10 Second_Flr_SF  0.0514    0.00354    14.5   9.84e- 46
# … with 221 more rows
…
To assess the accuracy of our trained linear regression model, ames_fit, we must use it to make predictions on our test data, ames_test_proc. This is done with the predict() function from parnsip. This function takes two important arguments:

a trained parnsip model object;

new_data for which to generate predictions.

The code below uses the predict() function to generate a data frame with a single column, .pred, which contains the predicted Sale Price values on the ames_test data.

predict(ames_fit, new_data = ames_test_proc)

Warning in predict.lm(object = object$fit, newdata = new_data, type =
"response"): prediction from a rank-deficient fit may be misleading

# A tibble: 586 × 1
   .pred
   <dbl>
 1  5.04
 2  5.22
 3  5.39
 4  5.14
 5  5.23
 6  4.99
 7  4.99
 8  4.98
 9  5.14
10  5.76
# … with 576 more rows
…
One reason this warning occurs is that you have more model parameters than observations in the dataset. We refer to this as high dimensional data. With high dimensional data, it becomes impossible to find a model that can describe the relationship between the predictor variables and the response variable because we don’t have enough observations to train the model on. The easiest way to resolve this issue is to use a simpler model with less coefficients to estimate.We are not worrying about this today.

Generally it’s best to combine the test data set and the predictions into a single data frame. We create a data frame with the predictions on the ames_test data and then use bind_cols() to add the ames_test data to the results.

ames_test_results <- predict(ames_fit, new_data = ames_test_proc) %>% 
  bind_cols(ames_test_proc)

Warning in predict.lm(object = object$fit, newdata = new_data, type =
"response"): prediction from a rank-deficient fit may be misleading

# View results
ames_test_results

# A tibble: 586 × 232
   .pred Lot_F…¹ Lot_A…² Mas_V…³ BsmtF…⁴ BsmtF…⁵ Bsmt_…⁶ Total…⁷ First…⁸ Secon…⁹
   <dbl>   <dbl>   <dbl>   <dbl>   <dbl>   <dbl>   <dbl>   <dbl>   <dbl>   <dbl>
 1  5.04   0.675   0.172 -0.569    0.819   0.552 -0.657  -0.388   -0.689  -0.786
 2  5.22   0.705   0.488  0.0527  -1.42   -0.298 -0.347   0.670    0.456  -0.786
 3  5.39   0.916   0.145  1.45    -0.523  -0.298 -0.336   1.92     1.85   -0.786
 4  5.14   0.224  -0.207 -0.569   -0.970  -0.298 -0.632   0.0242  -0.266  -0.786
 5  5.23  -0.949  -0.516 -0.569   -0.523  -0.298 -0.466   0.850    0.477  -0.786
 6  4.99  -1.10   -1.01   2.33     0.819  -0.298 -0.527  -1.33    -1.78    0.392
 7  4.99  -1.10   -1.01   2.26     0.819  -0.298 -0.759  -1.23    -1.67    0.539
 8  4.98  -1.10   -1.01   1.62     1.27   -0.298 -0.0770 -1.23    -1.67    0.539
 9  5.14  -1.01   -0.943 -0.569   -1.42   -0.298 -0.495  -0.452   -0.797   0.618
10  5.76   1.58    0.492  5.74    -0.523  -0.298  2.08    4.26     4.07   -0.786
# … with 576 more rows, 222 more variables: Low_Qual_Fin_SF <dbl>,
#   Gr_Liv_Area <dbl>, Bsmt_Full_Bath <dbl>, Bsmt_Half_Bath <dbl>,
#   Full_Bath <dbl>, Half_Bath <dbl>, Bedroom_AbvGr <dbl>, Kitchen_AbvGr <dbl>,
#   TotRms_AbvGrd <dbl>, Fireplaces <dbl>, Garage_Cars <dbl>,
#   Garage_Area <dbl>, Wood_Deck_SF <dbl>, Open_Porch_SF <dbl>,
#   Enclosed_Porch <dbl>, Three_season_porch <dbl>, Screen_Porch <dbl>,
#   Pool_Area <dbl>, Misc_Val <dbl>, Mo_Sold <dbl>, Year_Sold <dbl>, …
…
The R-squared (rsq) and root mean squared error (RMSE) metrics are similar for both the training and testing datasets in our linear regression model. This is a good sign that the model is not over-fitting and can be used for making predictions on new data.

We can save the test set predictions by using the collect_predictions() function. This function returns a data frame which will have the response variables values from the test set and a column named .pred with the model predictions.

# Obtain test set predictions data frame
ames_results_final <- ames_final %>% 
                 collect_predictions()
# View results
ames_results_final

# A tibble: 586 × 5
   id               .pred  .row Sale_Price .config             
   <chr>            <dbl> <int>      <dbl> <chr>               
 1 train/test split  5.04     2       5.02 Preprocessor1_Model1
 2 train/test split  5.22     3       5.24 Preprocessor1_Model1
 3 train/test split  5.39    18       5.60 Preprocessor1_Model1
 4 train/test split  5.14    26       5.15 Preprocessor1_Model1
 5 train/test split  5.23    29       5.26 Preprocessor1_Model1
 6 train/test split  4.99    30       4.98 Preprocessor1_Model1
 7 train/test split  4.99    31       5.02 Preprocessor1_Model1
 8 train/test split  4.98    32       4.94 Preprocessor1_Model1
 9 train/test split  5.14    34       5.18 Preprocessor1_Model1
10 train/test split  5.76    47       5.70 Preprocessor1_Model1
# … with 576 more rows
…
