Sydney Informatics Hub – step2
…
#Tune random forest model 
rf_tune_model <- tune_grid(
  rf_model_diabetes,  #your model
  diabetes_rec,       #your recipe
  resamples = diabetes_folds, #your resampling
  grid = rf_grid)

rf_tune_model

# Tuning results
# 10-fold cross-validation repeated 5 times using stratification 
# A tibble: 50 × 5
   splits           id      id2    .metrics          .notes          
   <list>           <chr>   <chr>  <list>            <list>          
 1 <split [483/54]> Repeat1 Fold01 <tibble [20 × 7]> <tibble [0 × 3]>
 2 <split [483/54]> Repeat1 Fold02 <tibble [20 × 7]> <tibble [0 × 3]>
 3 <split [483/54]> Repeat1 Fold03 <tibble [20 × 7]> <tibble [0 × 3]>
 4 <split [483/54]> Repeat1 Fold04 <tibble [20 × 7]> <tibble [0 × 3]>
 5 <split [483/54]> Repeat1 Fold05 <tibble [20 × 7]> <tibble [0 × 3]>
 6 <split [483/54]> Repeat1 Fold06 <tibble [20 × 7]> <tibble [0 × 3]>
 7 <split [483/54]> Repeat1 Fold07 <tibble [20 × 7]> <tibble [0 × 3]>
 8 <split [484/53]> Repeat1 Fold08 <tibble [20 × 7]> <tibble [0 × 3]>
 9 <split [484/53]> Repeat1 Fold09 <tibble [20 × 7]> <tibble [0 × 3]>
10 <split [484/53]> Repeat1 Fold10 <tibble [20 × 7]> <tibble [0 × 3]>
# … with 40 more rows

Use collect_metrics to extract the metrics calculated from the cross-validation performance across the different values of the parameters:

#collect metrics
rf_tune_model %>%
  collect_metrics()

# A tibble: 40 × 9
    mtry trees min_n .metric     .estimator  mean     n std_err .config         
   <int> <int> <int> <chr>       <chr>      <dbl> <int>   <dbl> <chr>           
 1     4  1644    34 accuracy    binary     0.767    50 0.00758 Preprocessor1_M…
 2     4  1644    34 roc_auc     binary     0.848    50 0.00633 Preprocessor1_M…
 3     4  1644    34 sensitivity binary     0.863    50 0.00834 Preprocessor1_M…
 4     4  1644    34 specificity binary     0.586    50 0.0154  Preprocessor1_M…
 5     6  1440    20 accuracy    binary     0.760    50 0.00779 Preprocessor1_M…
 6     6  1440    20 roc_auc     binary     0.843    50 0.00640 Preprocessor1_M…
 7     6  1440    20 sensitivity binary     0.856    50 0.00832 Preprocessor1_M…
 8     6  1440    20 specificity binary     0.579    50 0.0156  Preprocessor1_M…
 9     6  1549    31 accuracy    binary     0.762    50 0.00772 Preprocessor1_M…
10     6  1549    31 roc_auc     binary     0.845    50 0.00643 Preprocessor1_M…
# … with 30 more rows
…
set.seed(435)

##use tune_grid() for hyperparameters tuning, doing cross validation for each row of the tuning grid
rlr_tune_model <- tune_grid(
  rlr_model_diabetes,  #your model
  diabetes_rec,       #your recipe
  resamples = diabetes_folds, #your resampling
  grid = rlr_grid)

rlr_tune_model %>%
  collect_metrics()

# A tibble: 22 × 8
   penalty mixture .metric  .estimator  mean     n  std_err .config             
     <dbl>   <dbl> <chr>    <chr>      <dbl> <int>    <dbl> <chr>               
 1     0       0   accuracy binary     0.750    50 0.00647  Preprocessor1_Model…
 2     0       0   roc_auc  binary     0.839    50 0.00718  Preprocessor1_Model…
 3     0.1     0.1 accuracy binary     0.749    50 0.00596  Preprocessor1_Model…
 4     0.1     0.1 roc_auc  binary     0.838    50 0.00697  Preprocessor1_Model…
 5     0.2     0.2 accuracy binary     0.750    50 0.00552  Preprocessor1_Model…
 6     0.2     0.2 roc_auc  binary     0.837    50 0.00696  Preprocessor1_Model…
 7     0.3     0.3 accuracy binary     0.683    50 0.00376  Preprocessor1_Model…
 8     0.3     0.3 roc_auc  binary     0.807    50 0.00793  Preprocessor1_Model…
 9     0.4     0.4 accuracy binary     0.652    50 0.000801 Preprocessor1_Model…
10     0.4     0.4 roc_auc  binary     0.784    50 0.00843  Preprocessor1_Model…
# … with 12 more rows
…
diabetes_wf_set

# A workflow set/tibble: 2 × 4
  wflow_id            info             option    result   
  <chr>               <list>           <list>    <list>   
1 recipe_rand_forest  <tibble [1 × 4]> <opts[2]> <tune[+]>
2 recipe_logistic_reg <tibble [1 × 4]> <opts[2]> <tune[+]>

The results column contains the results of each call to tune_grid() for the workflows. From these results, we can get quick assessments of how well these models classified the data:

#To get the rankings of the models (and their tuning parameter sub-models) as a data frame:
rank_results(diabetes_wf_set, rank_metric = "roc_auc")

# A tibble: 40 × 9
   wflow_id           .config    .metric  mean std_err     n prepr…¹ model  rank
   <chr>              <chr>      <chr>   <dbl>   <dbl> <int> <chr>   <chr> <int>
 1 recipe_rand_forest Preproces… accura… 0.764 0.00684    50 recipe  rand…     1
 2 recipe_rand_forest Preproces… roc_auc 0.850 0.00608    50 recipe  rand…     1
 3 recipe_rand_forest Preproces… accura… 0.768 0.00657    50 recipe  rand…     2
 4 recipe_rand_forest Preproces… roc_auc 0.850 0.00618    50 recipe  rand…     2
 5 recipe_rand_forest Preproces… accura… 0.763 0.00669    50 recipe  rand…     3
 6 recipe_rand_forest Preproces… roc_auc 0.847 0.00628    50 recipe  rand…     3
 7 recipe_rand_forest Preproces… accura… 0.766 0.00776    50 recipe  rand…     4
 8 recipe_rand_forest Preproces… roc_auc 0.846 0.00642    50 recipe  rand…     4
 9 recipe_rand_forest Preproces… accura… 0.764 0.00701    50 recipe  rand…     5
10 recipe_rand_forest Preproces… roc_auc 0.845 0.00639    50 recipe  rand…     5
# … with 30 more rows, and abbreviated variable name ¹​preprocessor
…
