Sydney Informatics Hub – step2
…
ames_prep

The bake() and juice() functions both return data, not a preprocessing recipe object.

The bake() function takes a prepped recipe (one that has had all quantities estimated from training data) and applies it to new_data. That new_data could be the training data again or it could be the testing data (with the TRAINING parameters).

ames_test_baked <- bake(ames_prep, new_data = ames_test)

The juice() function is a nice little shortcut. When we juice() the recipe, we squeeze that training data back out, transformed in the ways we specified.

Let’s compare the bake() and juice() outputs:

bake(ames_prep, new_data = ames_train)

# A tibble: 2,339 × 224
   lot_frontage lot_area mas_vnr_area bsmt_fin_sf_1 bsmt_fin_sf_2 bsmt_unf_sf
          <dbl>    <dbl>        <dbl>         <dbl>         <dbl>       <dbl>
 1       0.374   -0.212        -0.569        -1.42          0.162      -1.27 
 2       0.374    0.0383       -0.569        -1.42         -0.298      -0.288
 3      -0.137   -0.733        -0.569        -1.42         -0.298       0.341
 4      -1.01    -0.943        -0.569         1.27         -0.298       0.630
 5      -0.0770  -0.273        -0.569         1.27         -0.298       0.816
 6      -0.227   -0.359        -0.569        -1.42          0.416      -1.27 
 7       0.374   -0.0453       -0.569         1.27         -0.298       0.584
 8       0.314   -0.149        -0.569         0.372        -0.298      -1.27 
 9      -1.73    -0.0430       -0.391        -0.970        -0.298      -0.288
10      -1.73    -0.392        -0.569        -1.42         -0.298      -0.404
# ℹ 2,329 more rows
# ℹ 218 more variables: total_bsmt_sf <dbl>, first_flr_sf <dbl>,
#   second_flr_sf <dbl>, gr_liv_area <dbl>, bsmt_full_bath <dbl>,
#   bsmt_half_bath <dbl>, full_bath <dbl>, half_bath <dbl>,
#   bedroom_abv_gr <dbl>, tot_rms_abv_grd <dbl>, fireplaces <dbl>,
#   garage_cars <dbl>, garage_area <dbl>, wood_deck_sf <dbl>,
#   open_porch_sf <dbl>, mo_sold <dbl>, year_sold <dbl>, longitude <dbl>, …

juice(ames_prep) 

# A tibble: 2,339 × 224
   lot_frontage lot_area mas_vnr_area bsmt_fin_sf_1 bsmt_fin_sf_2 bsmt_unf_sf
          <dbl>    <dbl>        <dbl>         <dbl>         <dbl>       <dbl>
 1       0.374   -0.212        -0.569        -1.42          0.162      -1.27 
 2       0.374    0.0383       -0.569        -1.42         -0.298      -0.288
 3      -0.137   -0.733        -0.569        -1.42         -0.298       0.341
 4      -1.01    -0.943        -0.569         1.27         -0.298       0.630
 5      -0.0770  -0.273        -0.569         1.27         -0.298       0.816
 6      -0.227   -0.359        -0.569        -1.42          0.416      -1.27 
 7       0.374   -0.0453       -0.569         1.27         -0.298       0.584
 8       0.314   -0.149        -0.569         0.372        -0.298      -1.27 
 9      -1.73    -0.0430       -0.391        -0.970        -0.298      -0.288
10      -1.73    -0.392        -0.569        -1.42         -0.298      -0.404
# ℹ 2,329 more rows
# ℹ 218 more variables: total_bsmt_sf <dbl>, first_flr_sf <dbl>,
#   second_flr_sf <dbl>, gr_liv_area <dbl>, bsmt_full_bath <dbl>,
#   bsmt_half_bath <dbl>, full_bath <dbl>, half_bath <dbl>,
#   bedroom_abv_gr <dbl>, tot_rms_abv_grd <dbl>, fireplaces <dbl>,
#   garage_cars <dbl>, garage_area <dbl>, wood_deck_sf <dbl>,
#   open_porch_sf <dbl>, mo_sold <dbl>, year_sold <dbl>, longitude <dbl>, …
…
To obtain the detailed results from our trained linear regression model in a data frame, we can use the tidy() and glance() functions directly on our trained parsnip model, ames_fit.

The tidy() function takes a linear regression object and returns a data frame of the estimated model coefficients and their associated F-statistics and p-values;

The glance() function returns performance metrics obtained on the training data;

We can also use the vip() function to plot the variable importance for each predictor in our model. The importance value is determined based on the F-statistics and estimate coefficents in our trained model object.

# Data frame of estimated coefficients
tidy(ames_fit)

# A tibble: 224 × 5
   term          estimate std.error statistic   p.value
   <chr>            <dbl>     <dbl>     <dbl>     <dbl>
 1 (Intercept)    4.22      0.0965     43.8   8.49e-300
 2 lot_frontage   0.00151   0.00121     1.24  2.14e-  1
 3 lot_area       0.00563   0.00129     4.35  1.42e-  5
 4 mas_vnr_area   0.00318   0.00168     1.89  5.90e-  2
 5 bsmt_fin_sf_1  0.0291    0.0248      1.17  2.41e-  1
 6 bsmt_fin_sf_2 -0.00244   0.00119    -2.05  4.03e-  2
 7 bsmt_unf_sf   -0.00986   0.00209    -4.71  2.61e-  6
 8 total_bsmt_sf  0.0305    0.00326     9.36  2.01e- 20
 9 first_flr_sf   0.00466   0.00910     0.512 6.09e-  1
10 second_flr_sf  0.00963   0.0100      0.960 3.37e-  1
# ℹ 214 more rows
…
Evaluating the model

To assess the accuracy of our trained linear regression model, we must use it to make predictions on new data. This is done with the predict() function from parnsip. This function takes two important arguments:

a trained parnsip model object;

new_data for which to generate predictions.

Let’s check how the model performs on our test dataset. The code below uses the predict() function to generate a data frame with a single column, .pred, which contains the predicted Sale Price values on the ames_test data.

predict(ames_fit, new_data = ames_test_baked)

# A tibble: 586 × 1
   .pred
   <dbl>
 1  5.03
 2  5.19
 3  5.39
 4  5.13
 5  5.23
 6  4.99
 7  4.99
 8  4.98
 9  5.14
10  5.77
# ℹ 576 more rows

Generally it’s best to combine the new data set and the predictions into a single data frame. We create a data frame with the predictions on the training data and then use bind_cols() to add the baked test data to the results.

ames_test_results <- predict(ames_fit, new_data = ames_test_baked) %>% 
  bind_cols(ames_test_baked)

# View results
ames_test_results

# A tibble: 586 × 225
   .pred lot_frontage lot_area mas_vnr_area bsmt_fin_sf_1 bsmt_fin_sf_2
   <dbl>        <dbl>    <dbl>        <dbl>         <dbl>         <dbl>
 1  5.03        0.675    0.172      -0.569          0.819         0.552
 2  5.19        0.705    0.488       0.0527        -1.42         -0.298
 3  5.39        0.916    0.145       1.45          -0.523        -0.298
 4  5.13        0.224   -0.207      -0.569         -0.970        -0.298
 5  5.23       -0.949   -0.516      -0.569         -0.523        -0.298
 6  4.99       -1.10    -1.01        2.33           0.819        -0.298
 7  4.99       -1.10    -1.01        2.26           0.819        -0.298
 8  4.98       -1.10    -1.01        1.62           1.27         -0.298
 9  5.14       -1.01    -0.943      -0.569         -1.42         -0.298
10  5.77        1.58     0.492       5.74          -0.523        -0.298
# ℹ 576 more rows
# ℹ 219 more variables: bsmt_unf_sf <dbl>, total_bsmt_sf <dbl>,
#   first_flr_sf <dbl>, second_flr_sf <dbl>, gr_liv_area <dbl>,
#   bsmt_full_bath <dbl>, bsmt_half_bath <dbl>, full_bath <dbl>,
#   half_bath <dbl>, bedroom_abv_gr <dbl>, tot_rms_abv_grd <dbl>,
#   fireplaces <dbl>, garage_cars <dbl>, garage_area <dbl>, wood_deck_sf <dbl>,
#   open_porch_sf <dbl>, mo_sold <dbl>, year_sold <dbl>, longitude <dbl>, …
…
The R2 and RMSE metrics are similar for both the training and testing datasets in our linear regression model. This is a good sign that the model is not over-fitting and can be used for making predictions on new data.

We can save the test set predictions by using the collect_predictions() function. This function returns a data frame which will have the response variables values from the test set and a column named .pred with the model predictions.

# Obtain test set predictions data frame
ames_results_final <- ames_final %>% 
                 collect_predictions()
# View results
ames_results_final

# A tibble: 586 × 5
   id               .pred  .row sale_price .config             
   <chr>            <dbl> <int>      <dbl> <chr>               
 1 train/test split  5.03     2       5.02 Preprocessor1_Model1
 2 train/test split  5.19     3       5.24 Preprocessor1_Model1
 3 train/test split  5.39    18       5.60 Preprocessor1_Model1
 4 train/test split  5.13    26       5.15 Preprocessor1_Model1
 5 train/test split  5.23    29       5.26 Preprocessor1_Model1
 6 train/test split  4.99    30       4.98 Preprocessor1_Model1
 7 train/test split  4.99    31       5.02 Preprocessor1_Model1
 8 train/test split  4.98    32       4.94 Preprocessor1_Model1
 9 train/test split  5.14    34       5.18 Preprocessor1_Model1
10 train/test split  5.77    47       5.70 Preprocessor1_Model1
# ℹ 576 more rows
…
