Sydney Informatics Hub – step2
…
set.seed(245)

diabetes_rec <- readRDS("../_models/diabetes_rec.rds")
diabetes_folds <- readRDS("../_models/diabetes_folds.rds")
rf_grid <- tune_grid(
  rf_model_diabetes,
  diabetes_rec,
  resamples = diabetes_folds)

rf_grid

# Tuning results
# 10-fold cross-validation repeated 5 times using stratification 
# A tibble: 50 × 5
   splits           id      id2    .metrics          .notes          
   <list>           <chr>   <chr>  <list>            <list>          
 1 <split [483/54]> Repeat1 Fold01 <tibble [14 × 5]> <tibble [0 × 3]>
 2 <split [483/54]> Repeat1 Fold02 <tibble [14 × 5]> <tibble [0 × 3]>
 3 <split [483/54]> Repeat1 Fold03 <tibble [14 × 5]> <tibble [0 × 3]>
 4 <split [483/54]> Repeat1 Fold04 <tibble [14 × 5]> <tibble [0 × 3]>
 5 <split [483/54]> Repeat1 Fold05 <tibble [14 × 5]> <tibble [0 × 3]>
 6 <split [483/54]> Repeat1 Fold06 <tibble [14 × 5]> <tibble [0 × 3]>
 7 <split [483/54]> Repeat1 Fold07 <tibble [14 × 5]> <tibble [0 × 3]>
 8 <split [484/53]> Repeat1 Fold08 <tibble [14 × 5]> <tibble [0 × 3]>
 9 <split [484/53]> Repeat1 Fold09 <tibble [14 × 5]> <tibble [0 × 3]>
10 <split [484/53]> Repeat1 Fold10 <tibble [14 × 5]> <tibble [0 × 3]>
# … with 40 more rows
…
